multiplier/multiplier.sim/sim_1/behav/xsim/simulate.log
Vivado Simulator 2018.3
Time resolution is 1 ps
Test           1: a= 36, b=129, c= 4644
Test           2: a=  9, b= 99, c=  891
Test           3: a= 13, b=141, c= 1833
Test           4: a=101, b= 18, c= 1818
Test           5: a=  1, b= 13, c=   13
Test           6: a=118, b= 61, c= 7198
Test           7: a=237, b=140, c=33180
Test           8: a=249, b=198, c=49302
Test           9: a=197, b=170, c=33490
Test          10: a=229, b=119, c=27251
Test          11: a= 18, b=143, c= 2574
Test          12: a=242, b=206, c=49852
Test          13: a=232, b=197, c=45704
Test          14: a= 92, b=189, c=17388
Test          15: a= 45, b=101, c= 4545
Test          16: a= 99, b= 10, c=  990
Test          17: a=128, b= 32, c= 4096
Test          18: a=170, b=157, c=26690
Test          19: a=150, b= 19, c= 2850
Test          20: a= 13, b= 83, c= 1079
Test          21: a=107, b=213, c=22791
Test          22: a=  2, b=174, c=  348
Test          23: a= 29, b=207, c= 6003
Test          24: a= 35, b= 10, c=  350
Test          25: a=202, b= 60, c=12120
Test          26: a=242, b=138, c=33396
Test          27: a= 65, b=216, c=14040
Test          28: a=120, b=137, c=16440
Test          29: a=235, b=182, c=42770
Test          30: a=198, b=174, c=34452
Test          31: a=188, b= 42, c= 7896
Test          32: a= 11, b=113, c= 1243
Test          33: a=133, b= 79, c=10507
Test          34: a= 59, b= 58, c= 3422
Test          35: a=126, b= 21, c= 2646
Test          36: a=241, b=217, c=52297
Test          37: a= 98, b= 76, c= 7448
Test          38: a=159, b=143, c=22737
Test          39: a=248, b=183, c=45384
Test          40: a=159, b= 92, c=14628
Test          41: a= 91, b=137, c=12467
Test          42: a= 73, b=208, c=15184
Test          43: a=215, b= 81, c=17415
Test          44: a=150, b= 12, c= 1800
Test          45: a=194, b=200, c=38800
Test          46: a=119, b= 61, c= 7259
Test          47: a= 18, b=126, c= 2268
Test          48: a=109, b= 57, c= 6213
Test          49: a= 31, b=211, c= 6541
Test          50: a=133, b=120, c=15960
Test          51: a= 91, b= 73, c= 6643
Test          52: a= 63, b= 42, c= 2646
Test          53: a= 88, b=134, c=11792
Test          54: a=142, b=156, c=22152
Test          55: a=250, b= 38, c= 9500
Test          56: a=115, b=163, c=18745
Test          57: a= 47, b=179, c= 8413
Test          58: a= 95, b= 68, c= 6460
Test          59: a=247, b=203, c=50141
Test          60: a=230, b= 90, c=20700
Test          61: a= 41, b=237, c= 9717
Test          62: a=218, b=101, c=22018
Test          63: a=181, b=223, c=40363
Test          64: a=121, b= 68, c= 8228
Test          65: a=208, b= 42, c= 8736
Test          66: a=171, b= 14, c= 2394
Test          67: a=220, b=154, c=33880
Test          68: a=253, b=195, c=49335
Test          69: a= 86, b= 78, c= 6708
Test          70: a=103, b= 10, c= 1030
Test          71: a=182, b= 56, c=10192
Test          72: a=121, b=184, c=22264
Test          73: a=148, b=147, c=21756
Test          74: a=  4, b= 89, c=  356
Test          75: a=219, b= 77, c=16863
Test          76: a=217, b=109, c=23653
Test          77: a=118, b=202, c=23836
Test          78: a=182, b=149, c=27118
Test          79: a= 70, b=  4, c=  280
Test          80: a=247, b=105, c=25935
Test          81: a=180, b=136, c=24480
Test          82: a= 40, b= 45, c= 1800
Test          83: a=199, b= 46, c= 9154
Test          84: a=  8, b= 28, c=  224
Test          85: a=253, b= 41, c=10373
Test          86: a= 28, b=134, c= 3752
Test          87: a=218, b= 61, c=13298
Test          88: a=102, b=112, c=11424
Test          89: a=115, b=186, c=21390
Test          90: a= 94, b=250, c=23500
Test          91: a=213, b= 26, c= 5538
Test          92: a=185, b= 55, c=10175
Test          93: a=150, b=192, c=28800
Test          94: a= 38, b=182, c= 6916
Test          95: a=125, b=220, c=27500
Test          96: a=134, b=120, c=16080
Test          97: a=126, b=219, c=27594
Test          98: a=207, b=121, c=25047
Test          99: a=250, b= 97, c=24250
Test         100: a= 23, b=161, c= 3703
Simulation finished. Data written to results.txt